taxo,distr,wf,n,prflip,qrel,qabs,qabsp,cost,costp
Perfect34,Bernoulli1,PWF,100,0,1.0,0.0,0.0,395.59999999999997,395.59999999999997
Perfect34,Bernoulli1,MWF,100,0,1.0,0.0,0.0,526.0,526.0
Perfect34,Bernoulli1,CWF,100,0,1.0,0.0,0.0,510.93772615400184,510.93772615400184
Perfect34,Bernoulli1,PWF,100,0,1.0,0.0,0.0,399.40000000000003,399.40000000000003
Perfect34,Bernoulli1,Hamming,100,0,1.0,0.0,0.0,6361.0,6361.0
Perfect34,Bernoulli1,MWF,100,0,1.0,0.0,0.0,587.0,587.0
Perfect34,Bernoulli1,PWF,100,0,1.0,0.0,0.0,389.0,389.0
Perfect34,Bernoulli1,Random,100,0,0.03039478262346982,0.0,0.0,1.5654885002148944,51.50517177925389
Perfect34,Bernoulli1,Random,100,0,0.027489872810132876,0.0,0.0,1.4615423738304432,53.166574611858984
Perfect34,Bernoulli1,Random,100,0,0.033019035557398685,0.0,0.0,1.551229139186613,46.97984398999274
Perfect34,Bernoulli1,CWF,100,0,1.0,0.0,0.0,516.1095180810025,516.1095180810025
Perfect34,Bernoulli1,MWF,100,0,1.0,0.0,0.0,568.0,568.0
Perfect34,Bernoulli1,Hamming,100,0,1.0,0.0,0.0,6271.0,6271.0
Perfect34,Bernoulli1,CWF,100,0.1,0.9174311470709589,0.0,0.0,513.7196078294862,559.9544003597607
Perfect34,Bernoulli1,CWF,100,0,1.0,0.0,0.0,515.2864032378478,515.2864032378478
Perfect34,Bernoulli1,Hamming,100,0,1.0,0.0,0.0,6304.0,6304.0
Perfect34,Bernoulli1,MWF,100,0.1,0.8966666666666666,0.0,0.0,538.0,600.0
Perfect34,Bernoulli1,CWF,100,0.1,0.9192101551067178,0.02,0.0,512.9947290522081,558.08209494014
Perfect34,Bernoulli1,PWF,100,0.1,0.9280205655526992,0.0,0.0,433.2,466.8
Perfect34,Bernoulli1,MWF,100,0.1,0.916256157635468,0.01,0.0,558.0,609.0
Perfect34,Bernoulli1,PWF,100,0.1,0.9208876025084417,0.0,0.0,381.79999999999995,414.6
Perfect34,Bernoulli1,CWF,100,0.1,0.9248249619640201,0.0,0.0,513.7438224733528,555.503845162583
Perfect34,Bernoulli1,MWF,100,0.1,0.9110032362459547,0.0,0.0,563.0,618.0
Perfect34,Bernoulli1,Random,100,0.1,0.03039478262346982,0.0,0.0,1.5654885002148944,51.50517177925389
Perfect34,Bernoulli1,Random,100,0.1,0.027489872810132876,0.01,0.0,1.4615423738304432,53.166574611858984
Perfect34,Bernoulli1,Random,100,0.1,0.033019035557398685,0.0,0.0,1.551229139186613,46.97984398999274
Perfect34,Bernoulli1,PWF,100,0.1,0.9260611592879965,0.0,0.0,405.80000000000007,438.2
Perfect34,Bernoulli1,Hamming,100,0.1,0.9974489795918368,0.0,0.0,6256.0,6272.0
Perfect34,Bernoulli1,CWF,100,0.2,0.866882154279873,0.0,0.0,514.8428150591529,593.9017345291155
Perfect34,Bernoulli1,Hamming,100,0.1,0.9981102362204725,0.0,0.0,6338.0,6350.0
Perfect34,Bernoulli1,CWF,100,0.2,0.8872150769410244,0.0,0.0,512.0471202466284,577.1397866818099
Perfect34,Bernoulli1,Hamming,100,0.1,0.9984078968317147,0.0,0.0,6271.0,6281.0
Perfect34,Bernoulli1,CWF,100,0.2,0.8765118769345907,0.0,0.0,514.6612364781989,587.1697235616641
Perfect34,Bernoulli1,MWF,100,0.2,0.874439461883408,0.0,0.0,585.0,669.0
Perfect34,Bernoulli1,PWF,100,0.2,0.8743093922651934,0.0,0.0,379.8,434.4
Perfect34,Bernoulli1,MWF,100,0.2,0.8630769230769231,0.0,0.0,561.0,650.0
Perfect34,Bernoulli1,PWF,100,0.2,0.9039548022598869,0.0,0.0,415.99999999999994,460.2
Perfect34,Bernoulli1,MWF,100,0.2,0.8573619631901841,0.0,0.0,559.0,652.0
Perfect34,Bernoulli1,PWF,100,0.2,0.8928255093002658,0.0,0.0,403.20000000000005,451.6
Perfect34,Bernoulli1,Random,100,0.2,0.03039478262346982,0.0,0.0,1.5654885002148944,51.50517177925389
Perfect34,Bernoulli1,Random,100,0.2,0.027489872810132876,0.0,0.0,1.4615423738304432,53.166574611858984
Perfect34,Bernoulli1,Random,100,0.2,0.033019035557398685,0.0,0.0,1.551229139186613,46.97984398999274
Perfect34,Bernoulli1,Hamming,100,0.2,0.9971514480139263,0.0,0.0,6301.0,6319.0
Perfect34,Bernoulli1,Hamming,100,0.2,0.9977714103788602,0.0,0.0,6268.0,6282.0
Perfect34,Bernoulli1,Hamming,100,0.2,0.9958932238193019,0.0,0.0,6305.0,6331.0
Perfect34,Bernoulli1,CWF,100,0.3,0.8591974414086794,0.0,0.0,512.7819567833816,596.8150416540586
Perfect34,Bernoulli1,CWF,100,0.3,0.8553968779742487,0.0,0.0,514.6329758869674,601.6306455381524
Perfect34,Bernoulli1,CWF,100,0.3,0.8518546638849019,0.0,0.0,507.5148967625803,595.7763903622332
Perfect34,Bernoulli1,MWF,100,0.3,0.822289156626506,0.01,0.0,546.0,664.0
Perfect34,Bernoulli1,MWF,100,0.3,0.8206997084548106,0.0,0.0,563.0,686.0
Perfect34,Bernoulli1,MWF,100,0.3,0.8196948682385575,0.0,0.0,591.0,721.0
Perfect34,Bernoulli1,PWF,100,0.3,0.8719486081370452,0.0,0.0,407.2000000000001,467.0
Perfect34,Bernoulli1,PWF,100,0.3,0.8582746478873241,0.0,0.0,390.00000000000006,454.4
Perfect34,Bernoulli1,PWF,100,0.3,0.8707015130674003,0.0,0.0,379.80000000000007,436.20000000000005
Perfect34,Bernoulli1,Hamming,100,0.3,0.9924409448818897,0.0,0.0,6302.0,6350.0
Perfect34,Bernoulli1,Hamming,100,0.3,0.9936908517350158,0.0,0.0,6300.0,6340.0
Perfect34,Bernoulli1,Hamming,100,0.3,0.994316387748658,0.0,0.0,6298.0,6334.0
Perfect34,Bernoulli1,Random,100,0.3,0.03039478262346982,0.0,0.0,1.5654885002148944,51.50517177925389
Perfect34,Bernoulli1,Random,100,0.3,0.027489872810132876,0.0,0.0,1.4615423738304432,53.166574611858984
Perfect34,Bernoulli1,Random,100,0.3,0.033019035557398685,0.0,0.0,1.551229139186613,46.97984398999274
Perfect34,Bernoulli1,TWF,100,0,0.0,0.0,0.0,0.0,0.0
Perfect34,Bernoulli1,TWF,100,0.1,0.0,0.0,0.0,0.0,1624.0
Perfect34,Bernoulli1,TWF,100,0.2,0.0,0.0,0.0,0.0,2686.0
Perfect34,Bernoulli1,TWF,100,0.3,0.0,0.0,0.0,0.0,15346.666666666666
Perfect34,Bernoulli1,TWF,100,0,0.0,0.0,0.0,0.0,0.0
Perfect34,Bernoulli1,TWF,100,0.1,0.0,0.0,0.0,0.0,2356.0
Perfect34,Bernoulli1,TWF,100,0.2,0.0,0.0,0.0,0.0,4631.0
Perfect34,Bernoulli1,TWF,100,0.3,0.0,0.0,0.0,0.0,10365.0
Perfect34,Bernoulli1,TWF,100,0,0.0,0.0,0.0,0.0,0.0
Perfect34,Bernoulli1,CWF,100,0.4,0.8249746111477685,0.0,0.0,519.1949308439979,629.3465566433053
Perfect34,Bernoulli1,CWF,100,0.4,0.8389974658797215,0.0,0.0,517.6004057137145,616.9272575465891
Perfect34,Bernoulli1,CWF,100,0.4,0.8140942010985007,0.0,0.0,511.22232079228075,627.964577198144
Perfect34,Bernoulli1,MWF,100,0.4,0.7724137931034483,0.0,0.0,560.0,725.0
Perfect34,Bernoulli1,MWF,100,0.4,0.8061797752808989,0.0,0.0,574.0,712.0
Perfect34,Bernoulli1,MWF,100,0.4,0.7777777777777778,0.0,0.0,553.0,711.0
Perfect34,Bernoulli1,PWF,100,0.4,0.8430583501006035,0.0,0.0,418.99999999999994,497.0
Perfect34,Bernoulli1,PWF,100,0.4,0.827433628318584,0.0,0.0,411.40000000000003,497.20000000000005
Perfect34,Bernoulli1,PWF,100,0.4,0.8180264844083726,0.0,0.0,383.0,468.2
Perfect34,Bernoulli1,Hamming,100,0.4,0.989875019775352,0.0,0.0,6257.0,6321.0
Perfect34,Bernoulli1,Hamming,100,0.4,0.993968253968254,0.0,0.0,6262.0,6300.0
Perfect34,Bernoulli1,Hamming,100,0.4,0.9918876755070203,0.0,0.0,6358.0,6410.0
Perfect34,Bernoulli1,Random,100,0.4,0.03488072595961199,0.0,0.0,1.6986360285932003,48.69841386214359
Perfect34,Bernoulli1,Random,100,0.4,0.03317896597937098,0.0,0.0,1.6178299196850427,48.76070944136501
Perfect34,Bernoulli1,Random,100,0.4,0.030718032902651887,0.0,0.0,1.5837083722755965,51.55630822111903
Perfect34,Bernoulli1,TWF,100,0.1,0.0,0.0,0.0,0.0,4318.0
Perfect34,Bernoulli1,CWF,100,0.5,0.8061446969452285,0.0,0.0,509.9282564368014,632.5517718706114
Perfect34,Bernoulli1,CWF,100,0.5,0.7785734633624134,0.0,0.0,513.8955907837619,660.0476576281046
Perfect34,Bernoulli1,CWF,100,0.5,0.8117117471312977,0.0,0.0,511.4899320475623,630.1374026620151
Perfect34,Bernoulli1,MWF,100,0.5,0.7647058823529411,0.0,0.0,546.0,714.0
Perfect34,Bernoulli1,MWF,100,0.5,0.7700394218134035,0.0,0.0,586.0,761.0
Perfect34,Bernoulli1,MWF,100,0.5,0.7724795640326976,0.0,0.0,567.0,734.0
Perfect34,Bernoulli1,PWF,100,0.5,0.8187299035369775,0.0,0.0,407.40000000000003,497.6
Perfect34,Bernoulli1,PWF,100,0.5,0.7823792123426717,0.0,0.0,385.40000000000003,492.59999999999997
Perfect34,Bernoulli1,PWF,100,0.5,0.8254660848869495,0.0,0.0,416.2,504.20000000000005
Perfect34,Bernoulli1,Hamming,100,0.5,0.9890350877192983,0.0,0.0,6314.0,6384.0
Perfect34,Bernoulli1,Hamming,100,0.5,0.9896340505732684,0.0,0.0,6301.0,6367.0
Perfect34,Bernoulli1,Hamming,100,0.5,0.9873637655978519,0.0,0.0,6251.0,6331.0
Perfect34,Bernoulli1,Random,100,0.5,0.03488072595961199,0.0,0.0,1.6986360285932003,48.69841386214359
Perfect34,Bernoulli1,Random,100,0.5,0.03317896597937098,0.0,0.0,1.6178299196850427,48.76070944136501
Perfect34,Bernoulli1,Random,100,0.5,0.030718032902651887,0.0,0.0,1.5837083722755965,51.55630822111903
Perfect34,Bernoulli1,TWF,100,0.2,0.0,0.0,0.0,0.0,5938.0
Perfect34,Bernoulli01,CWF,100,0,1.0,0.26,0.26,387.48396546214406,387.48396546214406
Perfect34,Bernoulli01,CWF,100,0,1.0,0.4,0.4,372.13393148135884,372.13393148135884
Perfect34,Bernoulli01,CWF,100,0,1.0,0.4,0.4,367.69483841763,367.69483841763
Perfect34,Bernoulli01,MWF,100,0,1.0,0.28,0.28,101.0,101.0
Perfect34,Bernoulli01,MWF,100,0,1.0,0.35,0.35,93.0,93.0
Perfect34,Bernoulli01,MWF,100,0,1.0,0.41,0.41,106.0,106.0
Perfect34,Bernoulli01,PWF,100,0,1.0,0.25,0.25,85.2,85.2
Perfect34,Bernoulli01,PWF,100,0,1.0,0.31,0.31,79.60000000000001,79.60000000000001
Perfect34,Bernoulli01,PWF,100,0,1.0,0.35,0.35,80.4,80.4
Perfect34,Bernoulli01,Hamming,100,0,1.0,0.0,0.0,7741.0,7741.0
Perfect34,Bernoulli01,Hamming,100,0,1.0,0.0,0.0,7768.0,7768.0
Perfect34,Bernoulli01,Hamming,100,0,1.0,0.0,0.0,7724.0,7724.0
Perfect34,Bernoulli01,Random,100,0,0.03488072595961199,0.02,0.01,1.6986360285932003,48.69841386214359
Perfect34,Bernoulli01,Random,100,0,0.03317896597937098,0.01,0.0,1.6178299196850427,48.76070944136501
Perfect34,Bernoulli01,Random,100,0,0.030718032902651887,0.03,0.0,1.5837083722755965,51.55630822111903
Perfect34,Bernoulli01,TWF,100,0,0.0,0.0,0.0,0.0,0.0
Perfect34,Bernoulli01,TWF,100,0,0.0,0.0,0.0,0.0,0.0
Perfect34,Bernoulli1,TWF,100,0.3,0.0,0.0,0.0,0.0,9703.0
Perfect34,Bernoulli01,CWF,100,0.1,0.5181533218697484,0.31,0.09,368.1081356082233,710.4231895685058
Perfect34,Bernoulli01,CWF,100,0.1,0.5172853058097165,0.31,0.13,350.88124447842176,678.3128005717864
Perfect34,Bernoulli01,CWF,100,0.1,0.572585660621946,0.33,0.13,379.85922355759567,663.4102976749195
Perfect34,Bernoulli01,TWF,100,0,0.0,0.0,0.0,0.0,0.0
Perfect34,Bernoulli01,PWF,100,0.1,0.6818897637795275,0.24,0.09,86.6,127.0
Perfect34,Bernoulli01,MWF,100,0.1,0.6642857142857143,0.31,0.11,93.0,140.0
Perfect34,Bernoulli01,PWF,100,0.1,0.6752827140549273,0.29,0.12,83.60000000000001,123.80000000000001
Perfect34,Bernoulli01,PWF,100,0.1,0.7117552334943639,0.23,0.07,88.39999999999999,124.19999999999999
Perfect34,Bernoulli01,MWF,100,0.1,0.7265625,0.32,0.16,93.0,128.0
Perfect34,Bernoulli01,MWF,100,0.1,0.7132867132867133,0.27,0.11,102.0,143.0
Perfect34,Bernoulli01,Random,100,0.1,0.03488072595961199,0.0,0.01,1.6986360285932003,48.69841386214359
Perfect34,Bernoulli01,Random,100,0.1,0.03317896597937098,0.0,0.0,1.6178299196850427,48.76070944136501
Perfect34,Bernoulli01,Random,100,0.1,0.030718032902651887,0.01,0.0,1.5837083722755965,51.55630822111903
Perfect34,Bernoulli01,Hamming,100,0.1,1.0,0.0,0.0,7737.0,7737.0
Perfect34,Bernoulli01,Hamming,100,0.1,1.0,0.0,0.0,7737.0,7737.0
Perfect34,Bernoulli01,Hamming,100,0.1,1.0,0.0,0.0,7728.0,7728.0
Perfect34,Bernoulli01,CWF,100,0.2,0.4892725024015793,0.31,0.05,365.45148474241245,746.9283128493935
Perfect34,Bernoulli01,CWF,100,0.2,0.4595397883922732,0.38,0.03,351.4585602429385,764.8055056832768
Perfect34,Bernoulli01,CWF,100,0.2,0.506254462217218,0.39,0.14,354.0457628006582,699.3434907221582
Perfect34,Bernoulli01,MWF,100,0.2,0.5985915492957746,0.28,0.04,85.0,142.0
Perfect34,Bernoulli01,MWF,100,0.2,0.6357615894039735,0.38,0.07,96.0,151.0
Perfect34,Bernoulli01,MWF,100,0.2,0.6712328767123288,0.37,0.14,98.0,146.0
Perfect34,Bernoulli01,PWF,100,0.2,0.6581325301204819,0.25,0.02,87.4,132.8
Perfect34,Bernoulli01,PWF,100,0.2,0.6171516079632465,0.34,0.02,80.60000000000001,130.60000000000002
Perfect34,Bernoulli01,PWF,100,0.2,0.632758620689655,0.35,0.1,73.39999999999999,116.00000000000001
Perfect34,Bernoulli01,TWF,100,0.1,0.0,0.0,0.0,0.0,0.0
Perfect34,Bernoulli01,Hamming,100,0.2,1.0,0.0,0.0,7745.0,7745.0
Perfect34,Bernoulli01,Hamming,100,0.2,1.0,0.0,0.0,7740.0,7740.0
Perfect34,Bernoulli01,Hamming,100,0.2,1.0,0.0,0.0,7756.0,7756.0
Perfect34,Bernoulli01,Random,100,0.2,0.02813501960132668,0.0,0.02,1.2913464083686552,45.898187620518414
Perfect34,Bernoulli01,Random,100,0.2,0.02841942314131813,0.0,0.03,1.5031880081435705,52.89298099644153
Perfect34,Bernoulli01,Random,100,0.2,0.03332807014392709,0.03,0.01,1.5512342901891656,46.54437786196947
Perfect34,Bernoulli01,TWF,100,0.1,0.0,0.0,0.0,0.0,0.0
Perfect34,Bernoulli01,TWF,100,0.2,0.0,0.0,0.0,0.0,0.0
Perfect34,Bernoulli1,TWF,100,0.4,0.0,0.0,0.0,0.0,13577.333333333332
Perfect34,Bernoulli01,TWF,100,0.1,0.0,0.0,0.0,0.0,0.0
Perfect34,Bernoulli01,CWF,100,0.3,0.46281805985721347,0.28,0.03,366.594414064872,792.0918517699419
Perfect34,Bernoulli01,CWF,100,0.3,0.45304725531527607,0.33,0.04,367.2685220594064,810.6627239223066
Perfect34,Bernoulli01,CWF,100,0.3,0.4362522370253746,0.35,0.02,354.03153509105624,811.5294433904852
Perfect34,Bernoulli01,MWF,100,0.3,0.5460526315789473,0.27,0.03,83.0,152.0
Perfect34,Bernoulli01,MWF,100,0.3,0.5949367088607594,0.32,0.04,94.0,158.0
Perfect34,Bernoulli01,MWF,100,0.3,0.546583850931677,0.34,0.06,88.0,161.0
Perfect34,Bernoulli01,PWF,100,0.3,0.6344370860927151,0.22,0.01,95.8,151.00000000000003
Perfect34,Bernoulli01,PWF,100,0.3,0.6101449275362318,0.28,0.03,84.20000000000002,138.00000000000003
Perfect34,Bernoulli01,PWF,100,0.3,0.6370481927710845,0.28,0.02,84.60000000000002,132.8
Perfect34,Bernoulli01,Hamming,100,0.3,1.0,0.0,0.0,7739.0,7739.0
Perfect34,Bernoulli01,Hamming,100,0.3,1.0,0.0,0.0,7748.0,7748.0
Perfect34,Bernoulli01,TWF,100,0.2,0.0,0.0,0.0,0.0,0.0
Perfect34,Bernoulli01,Hamming,100,0.3,1.0,0.0,0.0,7745.0,7745.0
Perfect34,Bernoulli01,Random,100,0.3,0.02813501960132668,0.02,0.0,1.2913464083686552,45.898187620518414
Perfect34,Bernoulli01,Random,100,0.3,0.02841942314131813,0.02,0.02,1.5031880081435705,52.89298099644153
Perfect34,Bernoulli01,Random,100,0.3,0.03332807014392709,0.01,0.03,1.5512342901891656,46.54437786196947
Perfect34,Bernoulli1,TWF,100,0.5,0.0,0.0,0.0,0.0,17151.166666666664
Perfect34,Bernoulli01,TWF,100,0.2,0.0,0.0,0.0,0.0,18.0
Perfect34,Bernoulli01,CWF,100,0.4,0.4352155773787349,0.31,0.01,371.933643998113,854.5963502460932
Perfect34,Bernoulli01,CWF,100,0.4,0.4505877656133847,0.3,0.03,373.0168921402681,827.8451405188079
Perfect34,Bernoulli01,CWF,100,0.4,0.4770580835358706,0.3,0.03,366.34120803058926,767.9174102141455
Perfect34,Bernoulli01,TWF,100,0.3,0.0,0.0,0.0,0.0,0.0
Perfect34,Bernoulli01,MWF,100,0.4,0.576271186440678,0.32,0.0,102.0,177.0
Perfect34,Bernoulli01,MWF,100,0.4,0.5847953216374269,0.29,0.03,100.0,171.0
Perfect34,Bernoulli01,MWF,100,0.4,0.6198830409356725,0.32,0.05,106.0,171.0
Perfect34,Bernoulli01,PWF,100,0.4,0.5806916426512968,0.28,0.02,80.60000000000001,138.8
Perfect34,Bernoulli01,PWF,100,0.4,0.5821325648414984,0.28,0.03,80.80000000000001,138.80000000000004
Perfect34,Bernoulli01,PWF,100,0.4,0.635036496350365,0.25,0.05,87.00000000000001,137.00000000000003
Perfect34,Bernoulli01,Hamming,100,0.4,0.9997416020671834,0.0,0.0,7738.0,7740.0
Perfect34,Bernoulli01,Hamming,100,0.4,1.0,0.0,0.0,7743.0,7743.0
Perfect34,Bernoulli01,Hamming,100,0.4,0.9997410332772239,0.0,0.0,7721.0,7723.0
Perfect34,Bernoulli01,Random,100,0.4,0.03528764581962421,0.01,0.0,1.7635539134740736,49.97652499939012
Perfect34,Bernoulli01,Random,100,0.4,0.03030331979919548,0.01,0.01,1.4284868155883936,47.139614572074656
Perfect34,Bernoulli01,Random,100,0.4,0.03174331080726219,0.0,0.0,1.5427384527724248,48.60042678407318
Perfect34,Bernoulli01,TWF,100,0.3,0.0,0.0,0.0,0.0,0.0
Perfect34,Bernoulli01,TWF,100,0.4,0.0,0.0,0.0,0.0,0.0
Perfect34,Bernoulli01,TWF,100,0.3,0.0,0.0,0.0,0.0,120.0
Perfect34,Bernoulli01,CWF,100,0.5,0.4350729250733439,0.35,0.02,361.20793744688285,830.2238926634908
Perfect34,Bernoulli01,CWF,100,0.5,0.3953771479187824,0.37,0.0,343.91231621200967,869.8335703576258
Perfect34,Bernoulli01,CWF,100,0.5,0.4204934735274966,0.39,0.02,360.90680147254346,858.2934675416391
Perfect34,Bernoulli01,MWF,100,0.5,0.5789473684210527,0.34,0.02,99.0,171.0
Perfect34,Bernoulli01,MWF,100,0.5,0.5443037974683544,0.35,0.02,86.0,158.0
Perfect34,Bernoulli01,MWF,100,0.5,0.5644171779141104,0.35,0.02,92.0,163.0
Perfect34,Bernoulli01,PWF,100,0.5,0.6022099447513812,0.27,0.05,87.2,144.8
Perfect34,Bernoulli01,PWF,100,0.5,0.5742296918767507,0.31,0.0,82.0,142.8
Perfect34,Bernoulli01,PWF,100,0.5,0.5788751714677639,0.3,0.02,84.39999999999999,145.8
Perfect34,Bernoulli01,Hamming,100,0.5,1.0,0.0,0.0,7728.0,7728.0
Perfect34,Bernoulli01,Hamming,100,0.5,0.9994848016486347,0.0,0.01,7760.0,7764.0
Perfect34,Bernoulli01,Hamming,100,0.5,1.0,0.0,0.0,7746.0,7746.0
Perfect34,Bernoulli01,Random,100,0.5,0.03528764581962421,0.0,0.01,1.7635539134740736,49.97652499939012
Perfect34,Bernoulli01,Random,100,0.5,0.03030331979919548,0.01,0.03,1.4284868155883936,47.139614572074656
Perfect34,Bernoulli01,Random,100,0.5,0.03174331080726219,0.0,0.02,1.5427384527724248,48.60042678407318
Perfect34,Bernoulli01,TWF,100,0.4,0.0,0.01,0.01,0.0,0.0
Perfect34,Bernoulli1,TWF,100,0.4,0.0,0.0,0.0,0.0,10965.0
Perfect34,Bernoulli01,TWF,100,0.5,0.0,0.0,0.0,0.0,0.0
Perfect34,Bernoulli01,TWF,100,0.4,0.0,0.0,0.0,0.0,0.0
Perfect34,Normal,CWF,100,0,1.0,0.48,0.48,384.34400272622196,384.34400272622196
Perfect34,Normal,CWF,100,0,1.0,0.6,0.6,388.32994983780065,388.32994983780065
Perfect34,Bernoulli1,TWF,100,0.5,0.0,0.0,0.0,0.0,17373.833333333332
Perfect34,Normal,CWF,100,0,1.0,0.42,0.42,384.32993215837627,384.32993215837627
Perfect34,Normal,MWF,100,0,1.0,0.64,0.64,29.0,29.0
Perfect34,Normal,MWF,100,0,1.0,0.73,0.73,36.0,36.0
Perfect34,Normal,MWF,100,0,1.0,0.61,0.61,38.0,38.0
Perfect34,Normal,PWF,100,0,1.0,0.64,0.64,491.40000000000015,491.40000000000015
Perfect34,Normal,PWF,100,0,1.0,0.73,0.73,658.0000000000005,658.0000000000005
Perfect34,Normal,PWF,100,0,1.0,0.61,0.61,488.20000000000016,488.20000000000016
Perfect34,Normal,Hamming,100,0,1.0,0.3,0.3,7967.0,7967.0
Perfect34,Normal,Hamming,100,0,1.0,0.49,0.49,7989.0,7989.0
Perfect34,Normal,Hamming,100,0,1.0,0.32,0.32,7965.0,7965.0
Perfect34,Normal,Random,100,0,0.029992268954247007,0.31,0.31,1.4846868346472268,49.5023179777464
Perfect34,Normal,Random,100,0,0.03306673420277747,0.49,0.52,1.5884341213317623,48.03722410537719
Perfect34,Normal,Random,100,0,0.03214594514459142,0.33,0.32,1.5886056551043741,49.41853935104031
Perfect34,Bernoulli01,TWF,100,0.5,0.0,0.0,0.01,0.0,52.0
Perfect34,Bernoulli01,TWF,100,0.5,0.0,0.0,0.0,0.0,24.0
Perfect34,Normal,CWF,100,0.1,0.8310043757483994,0.26,0.08,284.2839323064793,342.0967934741069
Perfect34,Normal,CWF,100,0.1,0.9973361752013804,0.55,0.47,388.719484526087,389.7577308349388
Perfect34,Normal,CWF,100,0.1,0.9963417848265004,0.48,0.41,387.72341150512074,389.14699494675676
Perfect34,Normal,MWF,100,0.1,0.6363636363636364,0.52,0.24,49.0,77.0
Perfect34,Normal,MWF,100,0.1,0.5348837209302325,0.72,0.52,23.0,43.0
Perfect34,Normal,MWF,100,0.1,0.52,0.72,0.48,26.0,50.0
Perfect34,Normal,PWF,100,0.1,0.6778761061946902,0.52,0.15,76.60000000000001,113.00000000000003
Perfect34,Normal,PWF,100,0.1,0.983568751801672,0.72,0.54,682.4000000000003,693.8000000000003
Perfect34,Bernoulli1,TWF,100,0.4,0.0,0.0,0.0,0.0,9018.5
Perfect34,Normal,Hamming,100,0.1,1.0,0.02,0.02,7903.0,7903.0
Perfect34,Normal,PWF,100,0.1,0.9749451926088321,0.72,0.49,622.6000000000003,638.6000000000001
Perfect34,Normal,Random,100,0.1,0.029992268954247007,0.03,0.03,1.4846868346472268,49.5023179777464
Perfect34,Normal,Random,100,0.1,0.03306673420277747,0.4,0.41,1.5884341213317623,48.03722410537719
Perfect34,Normal,Random,100,0.1,0.03214594514459142,0.34,0.33,1.5886056551043741,49.41853935104031
Perfect34,Normal,Hamming,100,0.1,0.9997495930887692,0.4,0.41,7985.0,7987.0
Perfect34,Normal,Hamming,100,0.1,1.0,0.33,0.33,7968.0,7968.0
Perfect34,Normal,CWF,100,0.2,0.9926293092174558,0.5,0.33,378.97480088189684,381.7888484278824
Perfect34,Normal,CWF,100,0.2,0.9906036222723086,0.41,0.27,378.94678455251665,382.54128698143137
Perfect34,Normal,CWF,100,0.2,0.9966156041885715,0.64,0.56,388.18616456946836,389.50440163489446
Perfect34,Normal,MWF,100,0.2,0.5384615384615384,0.64,0.34,35.0,65.0
Perfect34,Normal,MWF,100,0.2,0.6,0.59,0.33,39.0,65.0
Perfect34,Normal,MWF,100,0.2,0.639344262295082,0.79,0.57,39.0,61.0
Perfect34,Normal,PWF,100,0.2,0.9426229508196725,0.64,0.35,368.0000000000001,390.4
Perfect34,Normal,PWF,100,0.2,0.9410558687852387,0.59,0.33,367.20000000000016,390.2
Perfect34,Normal,PWF,100,0.2,0.983596409780254,0.79,0.58,635.6000000000004,646.2000000000003
Perfect34,Normal,Hamming,100,0.2,1.0,0.27,0.27,7955.0,7955.0
Perfect34,Normal,Hamming,100,0.2,1.0,0.23,0.23,7948.0,7948.0
Perfect34,Normal,Hamming,100,0.2,1.0,0.49,0.49,7980.0,7980.0
Perfect34,Normal,Random,100,0.2,0.02813501960132668,0.27,0.27,1.2913464083686552,45.898187620518414
Perfect34,Normal,Random,100,0.2,0.02841942314131813,0.24,0.24,1.5031880081435705,52.89298099644153
Perfect34,Normal,Random,100,0.2,0.03332807014392709,0.5,0.51,1.5512342901891656,46.54437786196947
Perfect34,Bernoulli1,TWF,100,0.5,0.0,0.0,0.0,0.0,19285.13333333333
Perfect34,Normal,CWF,100,0.3,0.9944312174136247,0.53,0.36,385.90793975153707,388.06901170623865
Perfect34,Normal,CWF,100,0.3,0.9925425862351173,0.36,0.18,383.1488686859605,386.02763649599086
Perfect34,Normal,CWF,100,0.3,0.9953571480774884,0.46,0.35,388.73805037395226,390.55132233167933
Perfect34,Normal,MWF,100,0.3,0.5172413793103449,0.66,0.38,30.0,58.0
Perfect34,Normal,MWF,100,0.3,0.4857142857142857,0.56,0.2,34.0,70.0
Perfect34,Normal,MWF,100,0.3,0.5178571428571429,0.63,0.36,29.0,56.0
Perfect34,Normal,PWF,100,0.3,0.959241040056219,0.66,0.39,546.0000000000001,569.2000000000003
Perfect34,Normal,PWF,100,0.3,0.9435284418796374,0.56,0.2,457.8000000000001,485.2000000000001
Perfect34,Normal,PWF,100,0.3,0.980265095729013,0.63,0.37,665.6000000000001,679.0000000000003
Perfect34,Normal,Hamming,100,0.3,1.0,0.34,0.34,7972.0,7972.0
Perfect34,Normal,Hamming,100,0.3,1.0,0.16,0.16,7942.0,7942.0
Perfect34,Normal,Hamming,100,0.3,1.0,0.29,0.29,7966.0,7966.0
Perfect34,Normal,Random,100,0.3,0.02813501960132668,0.35,0.34,1.2913464083686552,45.898187620518414
Perfect34,Normal,Random,100,0.3,0.02841942314131813,0.17,0.17,1.5031880081435705,52.89298099644153
Perfect34,Normal,Random,100,0.3,0.03332807014392709,0.3,0.31,1.5512342901891656,46.54437786196947
Perfect34,Normal,TWF,100,0,1.0,0.64,0.64,14326.231884057972,14326.231884057972
Perfect34,Normal,TWF,100,0.1,0.8234841193455246,0.52,0.27,1426.0,1731.6666666666665
Perfect34,Normal,TWF,100,0.2,0.9811210151982873,0.64,0.34,10195.424836601309,10391.607843137255
Perfect34,Normal,TWF,100,0.3,0.9899222026555747,0.66,0.41,15927.213675213678,16089.358974358976
Perfect34,Normal,TWF,100,0,1.0,0.73,0.73,19643.340909090908,19643.340909090908
Perfect34,Normal,TWF,100,0.1,0.9933800594412256,0.72,0.51,21186.37076648841,21327.55793226381
Perfect34,Normal,TWF,100,0.2,0.9793257101667703,0.59,0.26,10549.411764705881,10772.117647058823
Perfect34,Normal,TWF,100,0.3,0.9814419150589362,0.56,0.19,12849.878787878788,13092.857142857145
Perfect34,Normal,TWF,100,0,1.0,0.61,0.61,14220.1884057971,14220.1884057971
Perfect34,Normal,CWF,100,0.4,0.9958203033117929,0.5,0.37,389.1901892832581,390.8237138657757
Perfect34,Normal,CWF,100,0.4,0.5940170690148321,0.18,0.04,260.8223304703364,439.0822151001588
Perfect34,Normal,CWF,100,0.4,0.9933433400720046,0.52,0.39,384.2398384671579,386.81473259719587
Perfect34,Normal,MWF,100,0.4,0.5,0.72,0.41,31.0,62.0
Perfect34,Normal,MWF,100,0.4,0.5591397849462365,0.46,0.05,52.0,93.0
Perfect34,Normal,MWF,100,0.4,0.5230769230769231,0.74,0.43,34.0,65.0
Perfect34,Normal,PWF,100,0.4,0.97827903091061,0.72,0.41,702.6000000000003,718.2000000000002
Perfect34,Normal,PWF,100,0.4,0.6126482213438735,0.46,0.04,62.0,101.19999999999999
Perfect34,Normal,PWF,100,0.4,0.9525879099170291,0.74,0.42,482.2000000000003,506.20000000000016
Perfect34,Normal,Hamming,100,0.4,0.9997490274814907,0.35,0.36,7967.0,7969.0
Perfect34,Normal,Hamming,100,0.4,0.9997470275739945,0.01,0.02,7904.0,7906.0
Perfect34,Normal,Hamming,100,0.4,1.0,0.38,0.38,7968.0,7968.0
Perfect34,Normal,Random,100,0.4,0.034409348301955384,0.38,0.35,1.6965969634511526,49.30628004235523
Perfect34,Normal,Random,100,0.4,0.03238690426258029,0.02,0.02,1.6599593526234315,51.25402968944279
Perfect34,Normal,Random,100,0.4,0.03472346849471515,0.38,0.4,1.7345245435709482,49.952513926854394
Perfect34,Normal,TWF,100,0.1,0.9933713101665766,0.72,0.53,18755.62580645161,18880.78064516129
Perfect34,Normal,CWF,100,0.5,0.9950687349363609,0.42,0.34,387.1212329255382,389.03969076095666
Perfect34,Normal,CWF,100,0.5,0.995624006142103,0.64,0.47,388.057250860607,389.76285070131235
Perfect34,Normal,CWF,100,0.5,0.9948055004452512,0.6,0.38,387.61473768952203,389.6387158253899
Perfect34,Normal,MWF,100,0.5,0.41509433962264153,0.64,0.33,22.0,53.0
Perfect34,Normal,MWF,100,0.5,0.5161290322580645,0.76,0.46,32.0,62.0
Perfect34,Normal,MWF,100,0.5,0.453125,0.76,0.41,29.0,64.0
Perfect34,Normal,PWF,100,0.5,0.973414477898783,0.64,0.32,607.8000000000003,624.4000000000002
Perfect34,Normal,PWF,100,0.5,0.9704808277541086,0.76,0.47,637.8000000000004,657.2000000000003
Perfect34,Normal,PWF,100,0.5,0.9628022318660886,0.76,0.35,621.2000000000004,645.2
Perfect34,Normal,Hamming,100,0.5,1.0,0.31,0.31,7976.0,7976.0
Perfect34,Normal,TWF,100,0.2,0.9923080787771212,0.79,0.56,19830.592741935485,19984.31048387097
Perfect34,Normal,Random,100,0.5,0.03528764581962421,0.31,0.31,1.7635539134740736,49.97652499939012
Perfect34,Normal,Random,100,0.5,0.03030331979919548,0.46,0.46,1.4284868155883936,47.139614572074656
Perfect34,Normal,Random,100,0.5,0.03174331080726219,0.36,0.35,1.5427384527724248,48.60042678407318
Perfect34,Normal,Hamming,100,0.5,0.9997495617330328,0.46,0.47,7984.0,7986.0
Perfect34,Normal,Hamming,100,0.5,1.0,0.35,0.35,7965.0,7965.0
Perfect34,Bernoulli3,CWF,100,0,1.0,0.0,0.0,473.9993525896151,473.9993525896151
Perfect34,Bernoulli3,CWF,100,0,1.0,0.0,0.0,471.676576028856,471.676576028856
Perfect34,Bernoulli3,CWF,100,0,1.0,0.0,0.0,474.1907512324803,474.1907512324803
Perfect34,Bernoulli3,MWF,100,0,1.0,0.0,0.0,1236.0,1236.0
Perfect34,Bernoulli3,MWF,100,0,1.0,0.0,0.0,1263.0,1263.0
Perfect34,Bernoulli3,MWF,100,0,1.0,0.0,0.0,1347.0,1347.0
Perfect34,Bernoulli3,PWF,100,0,1.0,0.0,0.0,896.2000000000002,896.2000000000002
Perfect34,Bernoulli3,PWF,100,0,1.0,0.0,0.0,870.8000000000001,870.8000000000001
Perfect34,Bernoulli3,PWF,100,0,1.0,0.0,0.0,824.2,824.2
Perfect34,Bernoulli3,Hamming,100,0,1.0,0.0,0.0,3743.0,3743.0
Perfect34,Bernoulli3,Hamming,100,0,1.0,0.0,0.0,3770.0,3770.0
Perfect34,Bernoulli3,Hamming,100,0,1.0,0.0,0.0,3799.0,3799.0
Perfect34,Bernoulli3,Random,100,0,0.034409348301955384,0.0,0.0,1.6965969634511526,49.30628004235523
Perfect34,Bernoulli3,Random,100,0,0.03238690426258029,0.0,0.0,1.6599593526234315,51.25402968944279
Perfect34,Bernoulli3,Random,100,0,0.03472346849471515,0.0,0.0,1.7345245435709482,49.952513926854394
Perfect34,Normal,TWF,100,0.3,0.9918696455387045,0.63,0.38,20854.82386363636,21025.77083333333
Perfect34,Bernoulli3,CWF,100,0.1,0.9813256362535794,0.0,0.0,474.49200187606516,483.521457451718
Perfect34,Bernoulli3,CWF,100,0.1,0.9775757411241552,0.0,0.0,474.60442732620805,485.49120785305143
Perfect34,Bernoulli3,CWF,100,0.1,0.9798108107259115,0.0,0.0,472.8298931710597,482.57264361142813
Perfect34,Bernoulli3,MWF,100,0.1,0.951310861423221,0.0,0.0,1270.0,1335.0
Perfect34,Bernoulli3,MWF,100,0.1,0.9570051890289103,0.0,0.0,1291.0,1349.0
Perfect34,Bernoulli3,MWF,100,0.1,0.9660889223813113,0.0,0.0,1282.0,1327.0
Perfect34,Bernoulli3,PWF,100,0.1,0.9784775713638426,0.0,0.0,863.8000000000002,882.8
Perfect34,Bernoulli3,PWF,100,0.1,0.9797862453531601,0.0,0.0,843.4000000000002,860.8000000000001
Perfect34,Bernoulli3,PWF,100,0.1,0.975152473458324,0.0,0.0,863.4000000000002,885.4000000000001
Perfect34,Bernoulli3,Hamming,100,0.1,0.9768815823272541,0.0,0.0,3803.0,3893.0
Perfect34,Bernoulli3,Hamming,100,0.1,0.9743326488706365,0.0,0.0,3796.0,3896.0
Perfect34,Bernoulli3,Hamming,100,0.1,0.9754825247782994,0.0,0.0,3740.0,3834.0
Perfect34,Bernoulli3,Random,100,0.1,0.03528764581962421,0.0,0.0,1.7635539134740736,49.97652499939012
Perfect34,Bernoulli3,Random,100,0.1,0.03030331979919548,0.0,0.0,1.4284868155883936,47.139614572074656
Perfect34,Bernoulli3,Random,100,0.1,0.03174331080726219,0.0,0.0,1.5427384527724248,48.60042678407318
Perfect34,Normal,TWF,100,0.4,0.990603787075087,0.72,0.41,21557.904201680674,21762.38823529412
Perfect34,Normal,TWF,100,0.5,0.989264063517901,0.64,0.34,18229.480459770115,18427.314942528737
Perfect34,Bernoulli3,TWF,100,0,1.0,0.0,0.0,35425.18243588197,35425.18243588197
Perfect34,Bernoulli3,TWF,100,0.1,0.8933902719235616,0.0,0.0,34078.8587249352,38145.54489334196
Perfect34,Normal,TWF,100,0.4,0.6398429833169774,0.46,0.05,1304.0,2038.0
Perfect34,Normal,TWF,100,0.5,0.9902593493953249,0.76,0.47,18773.137096774193,18957.798387096776
Perfect34,Bernoulli3,TWF,100,0,1.0,0.0,0.0,35039.92050188374,35039.92050188374
Perfect34,Bernoulli3,TWF,100,0.1,0.9225827247331347,0.0,0.0,34167.899499356856,37035.05234095969
Perfect34,Normal,TWF,100,0.4,0.9854125301821304,0.74,0.42,14345.985507246376,14558.35507246377
Perfect34,Bernoulli3,CWF,100,0.2,0.9716097903152086,0.0,0.0,473.58776062547383,487.4258836686207
Perfect34,Bernoulli3,CWF,100,0.2,0.9639346388826555,0.0,0.0,472.37732657019546,490.0512000665849
Perfect34,Bernoulli3,CWF,100,0.2,0.9560368977365677,0.0,0.0,475.70223821436355,497.57727901569075
Perfect34,Bernoulli3,MWF,100,0.2,0.9267399267399268,0.0,0.0,1265.0,1365.0
Perfect34,Bernoulli3,MWF,100,0.2,0.933186490455213,0.0,0.0,1271.0,1362.0
Perfect34,Bernoulli3,MWF,100,0.2,0.9195323246217332,0.0,0.0,1337.0,1454.0
Perfect34,Bernoulli3,PWF,100,0.2,0.9636566332218506,0.0,0.0,864.4000000000001,897.0000000000001
Perfect34,Bernoulli3,PWF,100,0.2,0.9555754992147184,0.0,0.0,851.8000000000001,891.4000000000001
Perfect34,Bernoulli3,PWF,100,0.2,0.9569818265470436,0.0,0.0,832.0,869.4000000000003
Perfect34,Bernoulli3,Hamming,100,0.2,0.9608042758971749,0.0,0.0,3775.0,3929.0
Perfect34,Bernoulli3,Hamming,100,0.2,0.9626168224299065,0.0,0.0,3811.0,3959.0
Perfect34,Bernoulli3,Hamming,100,0.2,0.947289905519642,0.0,0.0,3810.0,4022.0
Perfect34,Bernoulli3,Random,100,0.2,0.03285659016059673,0.0,0.0,1.649573445309239,50.20525371763897
Perfect34,Bernoulli3,Random,100,0.2,0.03129928274425829,0.0,0.0,1.5602015516423862,49.8478372297077
Perfect34,Bernoulli3,Random,100,0.2,0.03354787264146692,0.0,0.0,1.670530403567287,49.79541985927371
Perfect34,Bernoulli3,TWF,100,0,1.0,0.0,0.0,34492.03018370518,34492.03018370518
Perfect34,Bernoulli3,CWF,100,0.3,0.9454315507861093,0.0,0.0,476.4358872978155,503.93482944552426
Perfect34,Normal,TWF,100,0.5,0.9862055917610048,0.76,0.36,17924.79139784946,18175.511827956987
Perfect34,Bernoulli3,CWF,100,0.3,0.9501810702847374,0.0,0.0,476.77097249326016,501.76854433691034
Perfect34,Bernoulli3,MWF,100,0.3,0.8853242320819112,0.0,0.0,1297.0,1465.0
Perfect34,Bernoulli3,CWF,100,0.3,0.9395001947282483,0.0,0.0,469.8713105546026,500.12901880293225
Perfect34,Bernoulli3,MWF,100,0.3,0.8821502412129566,0.0,0.0,1280.0,1451.0
Perfect34,Bernoulli3,MWF,100,0.3,0.8910614525139665,0.0,0.0,1276.0,1432.0
Perfect34,Bernoulli3,Hamming,100,0.3,0.937375745526839,0.0,0.0,3772.0,4024.0
Perfect34,Bernoulli3,PWF,100,0.3,0.935611038107753,0.0,0.0,854.4000000000001,913.2
Perfect34,Bernoulli3,Hamming,100,0.3,0.9273702169144529,0.0,0.0,3805.0,4103.0
Perfect34,Bernoulli3,Hamming,100,0.3,0.9303359683794467,0.0,0.0,3766.0,4048.0
Perfect34,Bernoulli3,Random,100,0.3,0.029992268954247007,0.0,0.0,1.4846868346472268,49.5023179777464
Perfect34,Bernoulli3,Random,100,0.3,0.03306673420277747,0.0,0.0,1.5884341213317623,48.03722410537719
Perfect34,Bernoulli3,Random,100,0.3,0.03214594514459142,0.0,0.0,1.5886056551043741,49.41853935104031
Perfect34,Bernoulli3,PWF,100,0.3,0.9320893903232806,0.0,0.0,859.2000000000002,921.8000000000001
Perfect34,Bernoulli3,PWF,100,0.3,0.9354416575790623,0.0,0.0,857.8000000000001,917.0
Perfect34,Bernoulli3,CWF,100,0.4,0.9318237210683155,0.0,0.0,473.9614492179834,508.6385316254849
Perfect34,Bernoulli3,CWF,100,0.4,0.9319547652924083,0.0,0.0,471.3076559562709,505.7194549656005
Perfect34,Bernoulli3,CWF,100,0.4,0.9304685269057268,0.0,0.0,475.67411858432496,511.21999812952225
Perfect34,Bernoulli3,MWF,100,0.4,0.8418156808803301,0.0,0.0,1224.0,1454.0
Perfect34,Bernoulli3,MWF,100,0.4,0.8711484593837535,0.0,0.0,1244.0,1428.0
Perfect34,Bernoulli3,MWF,100,0.4,0.852280462899932,0.0,0.0,1252.0,1469.0
Perfect34,Bernoulli3,PWF,100,0.4,0.9298740772904909,0.0,0.0,856.6000000000003,921.2
Perfect34,Bernoulli3,TWF,100,0.1,0.9402748539979195,0.0,0.0,35033.317821394296,37258.59271088389
Perfect34,Bernoulli3,PWF,100,0.4,0.9164634146341462,0.0,0.0,901.8,984.0000000000001
Perfect34,Bernoulli3,Hamming,100,0.4,0.8999295278365046,0.0,0.0,3831.0,4257.0
Perfect34,Bernoulli3,Hamming,100,0.4,0.921751968503937,0.0,0.0,3746.0,4064.0
Perfect34,Bernoulli3,PWF,100,0.4,0.9234060761660248,0.0,0.0,863.2,934.8000000000001
Perfect34,Bernoulli3,Random,100,0.4,0.03285659016059673,0.0,0.0,1.649573445309239,50.20525371763897
Perfect34,Bernoulli3,Random,100,0.4,0.03129928274425829,0.0,0.0,1.5602015516423862,49.8478372297077
Perfect34,Bernoulli3,Random,100,0.4,0.03354787264146692,0.0,0.0,1.670530403567287,49.79541985927371
Perfect34,Bernoulli3,Hamming,100,0.4,0.9077366650648726,0.0,0.0,3778.0,4162.0
Perfect34,Bernoulli3,CWF,100,0.5,0.9198656466977115,0.0,0.0,476.80077309054053,518.3374059051342
Perfect34,Bernoulli3,CWF,100,0.5,0.9162892062291307,0.0,0.0,476.23285171435174,519.7407635895071
Perfect34,Bernoulli3,CWF,100,0.5,0.9187013924215676,0.0,0.0,475.260420762408,517.3176232047373
Perfect34,Bernoulli3,MWF,100,0.5,0.8537859007832899,0.0,0.0,1308.0,1532.0
Perfect34,Bernoulli3,MWF,100,0.5,0.8607935440484197,0.0,0.0,1280.0,1487.0
Perfect34,Bernoulli3,MWF,100,0.5,0.8260869565217391,0.0,0.0,1273.0,1541.0
Perfect34,Bernoulli3,PWF,100,0.5,0.9171175070331098,0.0,0.0,847.6000000000001,924.2
Perfect34,Bernoulli3,PWF,100,0.5,0.907443365695793,0.0,0.0,841.2,927.0
Perfect34,Bernoulli3,PWF,100,0.5,0.9111483654652138,0.0,0.0,869.6,954.4
Perfect34,Bernoulli3,Hamming,100,0.5,0.9032562529495045,0.0,0.0,3828.0,4238.0
Perfect34,Bernoulli3,Hamming,100,0.5,0.8812199036918138,0.0,0.0,3843.0,4361.0
Perfect34,Bernoulli3,Hamming,100,0.5,0.8953846153846153,0.0,0.0,3783.0,4225.0
Perfect34,Bernoulli3,Random,100,0.5,0.029992268954247007,0.0,0.0,1.4846868346472268,49.5023179777464
Perfect34,Bernoulli3,Random,100,0.5,0.03306673420277747,0.0,0.0,1.5884341213317623,48.03722410537719
Perfect34,Bernoulli3,Random,100,0.5,0.03214594514459142,0.0,0.0,1.5886056551043741,49.41853935104031
Perfect34,Bernoulli3,TWF,100,0.2,0.8180314155278502,0.0,0.0,34755.99051298718,42487.35421800423
Perfect34,Bernoulli3,TWF,100,0.3,0.8151777903196197,0.0,0.0,35114.34169082551,43075.684970584975
Perfect34,Bernoulli3,TWF,100,0.4,0.7930225603214838,0.0,0.0,34167.01303222922,43084.541022866026
Perfect34,Bernoulli3,TWF,100,0.5,0.7396563583679665,0.0,0.0,34307.47022977024,46382.98561438561
Perfect34,Bernoulli3,TWF,100,0.2,0.8932953942636886,0.0,0.0,34459.465159840154,38575.66643813702
Perfect34,Bernoulli3,TWF,100,0.3,0.7894176841276025,0.0,0.0,34027.34770843192,43104.36463813964
Perfect34,Bernoulli3,TWF,100,0.4,0.8110412937370469,0.0,0.0,35791.985139860146,44130.90358807859
Perfect34,Bernoulli3,TWF,100,0.5,0.7890162011267731,0.0,0.0,34322.05959245433,43499.81602841603
Perfect34,Bernoulli3,TWF,100,0.2,0.8178771546237733,0.0,0.0,33872.667361053114,41415.348465913165
Perfect34,Bernoulli3,TWF,100,0.3,0.8208452526599858,0.0,0.0,33895.14106057342,41292.9732501159
Perfect34,Bernoulli3,TWF,100,0.4,0.7663524117422609,0.0,0.0,34081.488488884694,44472.344533244526
Perfect34,Bernoulli3,TWF,100,0.5,0.7219590905347248,0.0,0.0,35084.17173235261,48595.78914141414
